module gitlab.com/filecoin-project/go-address

go 1.19

require (
	github.com/filecoin-project/go-crypto v0.0.0-20191218222705-effae4ea9f03
	github.com/ipfs/go-ipld-cbor v0.0.5
	github.com/minio/blake2b-simd v0.0.0-20160723061019-3f5f724cb5b1
	github.com/multiformats/go-varint v0.0.6
	github.com/polydawn/refmt v0.0.0-20190807091052-3d65705ee9f1
	github.com/stretchr/testify v1.4.0
	github.com/whyrusleeping/cbor-gen v0.0.0-20210303213153-67a261a1d291
	golang.org/x/xerrors v0.0.0-20200804184101-5ec99f83aff1
)

require (
	github.com/davecgh/go-spew v1.1.1 // indirect
	github.com/ipfs/go-block-format v0.0.2 // indirect
	github.com/ipfs/go-cid v0.0.6 // indirect
	github.com/ipfs/go-ipfs-util v0.0.1 // indirect
	github.com/ipfs/go-ipld-format v0.0.1 // indirect
	github.com/ipsn/go-secp256k1 v0.0.0-20180726113642-9d62b9f0bc52 // indirect
	github.com/minio/sha256-simd v0.1.1-0.20190913151208-6de447530771 // indirect
	github.com/mr-tron/base58 v1.1.3 // indirect
	github.com/multiformats/go-base32 v0.0.3 // indirect
	github.com/multiformats/go-base36 v0.1.0 // indirect
	github.com/multiformats/go-multibase v0.0.3 // indirect
	github.com/multiformats/go-multihash v0.0.13 // indirect
	github.com/pmezard/go-difflib v1.0.0 // indirect
	github.com/spaolacci/murmur3 v1.1.0 // indirect
	golang.org/x/crypto v0.1.0 // indirect
	golang.org/x/sys v0.1.0 // indirect
	gopkg.in/yaml.v2 v2.2.4 // indirect
)
